Modeling Bandwagoning and Hype in the MLB
…
Above, we have depicted the final residuals of the Chicago Cubs, San Francisco Giants, and Los Angeles Dodgers. Moreover, we included plots of the predicted and actual Google hits for each of these three teams.

The resiudals of the San Francisco Giants typically fall below 0; however, there are instances before 2010 and after 2016 where the residuals are positive. Our predictions were fairly close, but we did underpredict the Google hits in the years before 2010 and after 2016. Between 2010 and 2016, it appears our model overpredicted the Google hits of this team.

While focusing on the residuals of Google hits for the Los Angeles Dodgers, it is important to notice that a majority of the residuals were negative. This can be seen in the predicted and actual values of Google hits for the Dodgers as well. Often, our model overpredicted the Google hits, with a few spikes in between 2014 and 2017 being small exceptions.

Lastly, it is evident that a majority of the residuals over these 16 years were larger than 0 for the Chicago Cubs. There were instance in these years in which we overpredicted the Google hits, but our model typically underpredicted the Google hits of the Cubs.

Measuring bandwagoning

## # A tibble: 5,970 x 3
##    team                 date       resid
##    <fct>                <fct>      <dbl>
##  1 Kansas City Royals   2014-10-01  2.62
##  2 Colorado Rockies     2007-10-01  2.47
##  3 Chicago White Sox    2005-10-01  2.39
##  4 Milwaukee Brewers    2018-10-01  2.36
##  5 Kansas City Royals   2015-10-01  2.28
##  6 St. Louis Cardinals  2013-10-01  2.26
##  7 Houston Astros       2019-10-01  2.15
##  8 St. Louis Cardinals  2011-10-01  2.11
##  9 St. Louis Cardinals  2004-10-01  2.10
## 10 San Francisco Giants 2014-10-01  2.07
## # ... with 5,960 more rows
…
